<?xml version="1.0"?>
<svg width="80" height="20" xmlns="http://www.w3.org/2000/svg" xmlns:svg="http://www.w3.org/2000/svg" preserveAspectRatio="xMidYMid meet">
 <metadata id="metadata30">image/svg+xml</metadata>

 <g class="layer">
  <title>Layer 1</title>
  <g fill="#000000" id="linmob" transform="translate(1.25, 1) scale(0.1, -0.1)">
   <path d="m6.41338,3.78268l-21.41338,-0.55024l0.40025,-93.90768l0.60038,-93.90769l68.04252,0l68.04252,0l0,21.09255l0,21.09255l-45.42839,0.55024l-45.62851,0.36682l0,72.44832c0,39.6173 -0.60038,72.44831 -1.40088,72.81513c-1.00062,0.36683 -11.207,0.36683 -23.21451,0l0,0z" id="path10"/>
   <path d="m133.89305,2.49879c-0.40025,-0.91707 -0.60037,-43.46899 -0.40025,-94.45793l0.60038,-92.62379l21.01313,0l21.01313,0l0,94.0911l0,94.27451l-20.81301,0.18342c-12.20763,0.18341 -21.01313,-0.36683 -21.41338,-1.46731l0,0z" id="path12"/>
   <path d="m187.92682,3.59927c-0.40025,-0.36682 -0.8005,-43.10216 -0.8005,-95.00816l0,-94.0911l18.01126,0l18.01125,0l0,73.36538l0,73.36538l8.005,0l8.00501,0l0,-73.36538l0,-73.36538l44.62789,0.36682l44.42776,0.55025l0,94.27451l0,94.0911l-16.01,0l-16.01001,0l-0.60037,-75.38293l-0.40025,-75.38293l-8.00501,0l-8.005,0l0,75.74975l0,75.56634l-45.22826,0c-24.81551,0 -45.62852,-0.36682 -46.02877,-0.73365z" id="path14"/>
   <path d="m339.22137,-89.20793l0,-94.45793l17.01063,0l17.01063,0l0,73.36538l0,73.36538l9.00563,0l9.00563,0l0,-73.36538l0,-73.36538l18.01126,0l18.01125,0l0,73.36538l0,73.36538l9.00563,0l9.00563,0l0,-73.36538l0,-73.36538l18.01126,0l18.01125,0l0,94.45793l0,94.45792l-71.0444,0l-71.0444,0l0,-94.45792z" id="path16"/>
   <path d="m491.31642,-89.20793l0,-94.45793l71.0444,0l71.0444,0l0,94.45793l0,94.45792l-71.0444,0l-71.0444,0l0,-94.45792zm100.06254,1.83413l0,-48.60456l-27.01688,0l-27.01689,0l0,48.60456l0,48.60457l27.01689,0l27.01688,0l0,-48.60457z" id="path18"/>
   <path d="m643.41148,-89.20793l0,-94.45793l71.04439,0l71.04441,0l0,94.45793l0,94.45792l-71.04441,0l-71.04439,0l0,-94.45792zm102.06378,30.26322l0,-20.17548l-32.02001,0l-32.02001,0l0,20.17548l0,20.17547l32.02001,0l32.02001,0l0,-20.17547zm0,-55.02404l0,-20.35889l-31.41964,0.55024l-31.61976,0.55024l-0.60037,19.80865l-0.60038,19.62524l32.22014,0l32.02001,0l0,-20.17548z" id="path20"/>
  </g>
 </g>
</svg>
